{"name":"Listar usuarios","id":"listar-usuarios-en-reqres;listar-usuarios","testSteps":[{"number":1,"description":"Dado que el usuario esta en la pagina principal","duration":11,"startTime":"2023-04-03T15:13:13.634126600-05:00[America/Bogota]","result":"SUCCESS","precondition":false,"level":0},{"number":2,"description":"Cuando el usuario envia la solicitud","duration":726,"startTime":"2023-04-03T15:13:13.648180500-05:00[America/Bogota]","result":"SUCCESS","precondition":false,"level":0,"children":[{"number":3,"description":"Valentina get","duration":699,"startTime":"2023-04-03T15:13:13.670111100-05:00[America/Bogota]","result":"SUCCESS","precondition":false,"level":1,"children":[{"number":4,"description":"Valentina executes a GET on the resource api/users?page\u003d2","duration":658,"startTime":"2023-04-03T15:13:13.710090300-05:00[America/Bogota]","result":"SUCCESS","precondition":false,"level":2,"children":[{"number":5,"description":"GET https://reqres.in/api/users?page\u003d2\r","duration":0,"startTime":"2023-04-03T15:13:14.366816-05:00[America/Bogota]","result":"SUCCESS","restQuery":{"method":"GET","path":"https://reqres.in/api/users?page\u003d2\r","content":"\r","contentType":"application/json","requestHeaders":"Accept\u003d*/*\r\n\t\t\t\tContent-Type\u003dapplication/json; charset\u003dUTF-8\r","requestCookies":"\r","responseHeaders":"Date: Mon, 03 Apr 2023 20:13:12 GMT\r\nContent-Type: application/json; charset\u003dutf-8\r\nTransfer-Encoding: chunked\r\nConnection: keep-alive\r\nX-Powered-By: Express\r\nAccess-Control-Allow-Origin: *\r\nEtag: W/\"406-ut0vzoCuidvyMf8arZpMpJ6ZRDw\"\r\nVia: 1.1 vegur\r\nCache-Control: max-age\u003d14400\r\nCF-Cache-Status: HIT\r\nAge: 2055\r\nReport-To: {\"endpoints\":[{\"url\":\"https:\\/\\/a.nel.cloudflare.com\\/report\\/v3?s\u003d8k0C2XtgCPW1hB12P09wD9Sc4d6BDmpa%2Bhq7E1Z1wFYBQruh4BdgmF0E087L77D9j2yoDS%2FzJSlwWDiRiQeOAPOMuB8YOXZW3daWFOFwOpxjvTUq83NGw0af%2Bw%3D%3D\"}],\"group\":\"cf-nel\",\"max_age\":604800}\r\nNEL: {\"success_fraction\":0,\"report_to\":\"cf-nel\",\"max_age\":604800}\r\nVary: Accept-Encoding\r\nServer: cloudflare\r\nCF-RAY: 7b23f88a08299ac3-MIA\r\nContent-Encoding: gzip\r","responseCookies":"\r","responseBody":"{\n    \"page\": 2,\n    \"per_page\": 6,\n    \"total\": 12,\n    \"total_pages\": 2,\n    \"data\": [\n        {\n            \"id\": 7,\n            \"email\": \"michael.lawson@reqres.in\",\n            \"first_name\": \"Michael\",\n            \"last_name\": \"Lawson\",\n            \"avatar\": \"https://reqres.in/img/faces/7-image.jpg\"\n        },\n        {\n            \"id\": 8,\n            \"email\": \"lindsay.ferguson@reqres.in\",\n            \"first_name\": \"Lindsay\",\n            \"last_name\": \"Ferguson\",\n            \"avatar\": \"https://reqres.in/img/faces/8-image.jpg\"\n        },\n        {\n            \"id\": 9,\n            \"email\": \"tobias.funke@reqres.in\",\n            \"first_name\": \"Tobias\",\n            \"last_name\": \"Funke\",\n            \"avatar\": \"https://reqres.in/img/faces/9-image.jpg\"\n        },\n        {\n            \"id\": 10,\n            \"email\": \"byron.fields@reqres.in\",\n            \"first_name\": \"Byron\",\n            \"last_name\": \"Fields\",\n            \"avatar\": \"https://reqres.in/img/faces/10-image.jpg\"\n        },\n        {\n            \"id\": 11,\n            \"email\": \"george.edwards@reqres.in\",\n            \"first_name\": \"George\",\n            \"last_name\": \"Edwards\",\n            \"avatar\": \"https://reqres.in/img/faces/11-image.jpg\"\n        },\n        {\n            \"id\": 12,\n            \"email\": \"rachel.howell@reqres.in\",\n            \"first_name\": \"Rachel\",\n            \"last_name\": \"Howell\",\n            \"avatar\": \"https://reqres.in/img/faces/12-image.jpg\"\n        }\n    ],\n    \"support\": {\n        \"url\": \"https://reqres.in/#support-heading\",\n        \"text\": \"To keep ReqRes free, contributions towards server costs are appreciated!\"\n    }\n}","statusCode":200},"precondition":false,"level":3}]}]}]},{"number":6,"description":"Entonces el usuario visualiza el codigo 200","duration":1166,"startTime":"2023-04-03T15:13:14.377316500-05:00[America/Bogota]","exception":{"errorType":"java.lang.AssertionError","message":"Unrecognized field \"page\" (class co.sofkau.models.ResponseGetListar), not marked as ignorable (4 known properties: \"porPagina\", \"totales\", \"datos\", \"totalPagina\"])\n at [Source: (String)\"{\"page\":2,\"per_page\":6,\"total\":12,\"total_pages\":2,\"data\":[{\"id\":7,\"email\":\"michael.lawson@reqres.in\",\"first_name\":\"Michael\",\"last_name\":\"Lawson\",\"avatar\":\"https://reqres.in/img/faces/7-image.jpg\"},{\"id\":8,\"email\":\"lindsay.ferguson@reqres.in\",\"first_name\":\"Lindsay\",\"last_name\":\"Ferguson\",\"avatar\":\"https://reqres.in/img/faces/8-image.jpg\"},{\"id\":9,\"email\":\"tobias.funke@reqres.in\",\"first_name\":\"Tobias\",\"last_name\":\"Funke\",\"avatar\":\"https://reqres.in/img/faces/9-image.jpg\"},{\"id\":10,\"email\":\"byron.f\"[truncated 530 chars]; line: 1, column: 10] (through reference chain: co.sofkau.models.ResponseGetListar[\"page\"])","stackTrace":[{"declaringClass":"co.sofkau.stepdefinitions.GetListarUsuariosStepDefinitions","methodName":"elUsuarioVisualizaElCodigo","fileName":"GetListarUsuariosStepDefinitions.java","lineNumber":63},{"declaringClass":"✽","methodName":"el usuario visualiza el codigo 200","fileName":"file:///C:/Users/valentina.mejia/Downloads/RetoRest/src/test/resources/features/GetListarUsuarios.feature","lineNumber":12}]},"result":"FAILURE","precondition":false,"level":0}],"userStory":{"id":"listar-usuarios-en-reqres","storyName":"Listar usuarios en reqres","path":"GetListarUsuarios.feature","narrative":"  yo como usuario de la pagina reqres.in\n  quiero listar usuarios","type":"feature"},"featureTag":{"name":"Listar usuarios en reqres","type":"feature","displayName":"Listar usuarios en reqres"},"title":"Listar usuarios","description":"","tags":[{"name":"Listar usuarios en reqres","type":"feature","displayName":"Listar usuarios en reqres"}],"startTime":"2023-04-03T15:13:13.622115600-05:00[America/Bogota]","duration":2134,"testFailureCause":{"errorType":"java.lang.AssertionError","message":"Unrecognized field \"page\" (class co.sofkau.models.ResponseGetListar), not marked as ignorable (4 known properties: \"porPagina\", \"totales\", \"datos\", \"totalPagina\"])\n at [Source: (String)\"{\"page\":2,\"per_page\":6,\"total\":12,\"total_pages\":2,\"data\":[{\"id\":7,\"email\":\"michael.lawson@reqres.in\",\"first_name\":\"Michael\",\"last_name\":\"Lawson\",\"avatar\":\"https://reqres.in/img/faces/7-image.jpg\"},{\"id\":8,\"email\":\"lindsay.ferguson@reqres.in\",\"first_name\":\"Lindsay\",\"last_name\":\"Ferguson\",\"avatar\":\"https://reqres.in/img/faces/8-image.jpg\"},{\"id\":9,\"email\":\"tobias.funke@reqres.in\",\"first_name\":\"Tobias\",\"last_name\":\"Funke\",\"avatar\":\"https://reqres.in/img/faces/9-image.jpg\"},{\"id\":10,\"email\":\"byron.f\"[truncated 530 chars]; line: 1, column: 10] (through reference chain: co.sofkau.models.ResponseGetListar[\"page\"])","stackTrace":[{"declaringClass":"co.sofkau.stepdefinitions.GetListarUsuariosStepDefinitions","methodName":"elUsuarioVisualizaElCodigo","fileName":"GetListarUsuariosStepDefinitions.java","lineNumber":63},{"declaringClass":"✽","methodName":"el usuario visualiza el codigo 200","fileName":"file:///C:/Users/valentina.mejia/Downloads/RetoRest/src/test/resources/features/GetListarUsuarios.feature","lineNumber":12}]},"testFailureClassname":"java.lang.AssertionError","testFailureMessage":"Unrecognized field \"page\" (class co.sofkau.models.ResponseGetListar), not marked as ignorable (4 known properties: \"porPagina\", \"totales\", \"datos\", \"totalPagina\"])\n at [Source: (String)\"{\"page\":2,\"per_page\":6,\"total\":12,\"total_pages\":2,\"data\":[{\"id\":7,\"email\":\"michael.lawson@reqres.in\",\"first_name\":\"Michael\",\"last_name\":\"Lawson\",\"avatar\":\"https://reqres.in/img/faces/7-image.jpg\"},{\"id\":8,\"email\":\"lindsay.ferguson@reqres.in\",\"first_name\":\"Lindsay\",\"last_name\":\"Ferguson\",\"avatar\":\"https://reqres.in/img/faces/8-image.jpg\"},{\"id\":9,\"email\":\"tobias.funke@reqres.in\",\"first_name\":\"Tobias\",\"last_name\":\"Funke\",\"avatar\":\"https://reqres.in/img/faces/9-image.jpg\"},{\"id\":10,\"email\":\"byron.f\"[truncated 530 chars]; line: 1, column: 10] (through reference chain: co.sofkau.models.ResponseGetListar[\"page\"])","testFailureSummary":"FAILURE;java.lang.AssertionError;Unrecognized field \"page\" (class co.sofkau.models.ResponseGetListar), not marked as ignorable (4 known properties: \"porPagina\", \"totales\", \"datos\", \"totalPagina\"])\n at [Source: (String)\"{\"page\":2,\"per_page\":6,\"total\":12,\"total_pages\":2,\"data\":[{\"id\":7,\"email\":\"michael.lawson@reqres.in\",\"first_name\":\"Michael\",\"last_name\":\"Lawson\",\"avatar\":\"https://reqres.in/img/faces/7-image.jpg\"},{\"id\":8,\"email\":\"lindsay.ferguson@reqres.in\",\"first_name\":\"Lindsay\",\"last_name\":\"Ferguson\",\"avatar\":\"https://reqres.in/img/faces/8-image.jpg\"},{\"id\":9,\"email\":\"tobias.funke@reqres.in\",\"first_name\":\"Tobias\",\"last_name\":\"Funke\",\"avatar\":\"https://reqres.in/img/faces/9-image.jpg\"},{\"id\":10,\"email\":\"byron.f\"[truncated 530 chars]; line: 1, column: 10] (through reference chain: co.sofkau.models.ResponseGetListar[\"page\"]);GetListarUsuariosStepDefinitions.java","projectKey":"","annotatedResult":"FAILURE","isManualTestingUpToDate":false,"manual":false,"testSource":"Cucumber","actors":[{"name":"Valentina","can":["call an API at https://reqres.in/"]}],"result":"FAILURE"}